[
  {
    "flightId": 0,
    "baggage": [
      {
        "id": 0,
        "weight": 880,
        "weightUnit": "kg",
        "pieces": 998
      },
      {
        "id": 1,
        "weight": 157,
        "weightUnit": "kg",
        "pieces": 262
      },
      {
        "id": 2,
        "weight": 101,
        "weightUnit": "kg",
        "pieces": 193
      },
      {
        "id": 3,
        "weight": 79,
        "weightUnit": "kg",
        "pieces": 658
      }
    ],
    "cargo": [
      {
        "id": 0,
        "weight": 5,
        "weightUnit": "kg",
        "pieces": 713
      },
      {
        "id": 1,
        "weight": 212,
        "weightUnit": "lb",
        "pieces": 13
      },
      {
        "id": 2,
        "weight": 440,
        "weightUnit": "lb",
        "pieces": 769
      }
    ]
  },
  {
    "flightId": 1,
    "baggage": [
      {
        "id": 0,
        "weight": 227,
        "weightUnit": "lb",
        "pieces": 375
      },
      {
        "id": 1,
        "weight": 528,
        "weightUnit": "lb",
        "pieces": 494
      },
      {
        "id": 2,
        "weight": 22,
        "weightUnit": "kg",
        "pieces": 492
      },
      {
        "id": 3,
        "weight": 606,
        "weightUnit": "kg",
        "pieces": 69
      },
      {
        "id": 4,
        "weight": 777,
        "weightUnit": "kg",
        "pieces": 987
      },
      {
        "id": 5,
        "weight": 818,
        "weightUnit": "lb",
        "pieces": 318
      },
      {
        "id": 6,
        "weight": 174,
        "weightUnit": "lb",
        "pieces": 751
      },
      {
        "id": 7,
        "weight": 623,
        "weightUnit": "kg",
        "pieces": 951
      }
    ],
    "cargo": [
      {
        "id": 0,
        "weight": 281,
        "weightUnit": "lb",
        "pieces": 611
      },
      {
        "id": 1,
        "weight": 732,
        "weightUnit": "kg",
        "pieces": 797
      },
      {
        "id": 2,
        "weight": 6,
        "weightUnit": "kg",
        "pieces": 675
      },
      {
        "id": 3,
        "weight": 392,
        "weightUnit": "kg",
        "pieces": 420
      }
    ]
  },
  {
    "flightId": 2,
    "baggage": [
      {
        "id": 0,
        "weight": 255,
        "weightUnit": "lb",
        "pieces": 674
      },
      {
        "id": 1,
        "weight": 205,
        "weightUnit": "kg",
        "pieces": 671
      },
      {
        "id": 2,
        "weight": 909,
        "weightUnit": "lb",
        "pieces": 919
      },
      {
        "id": 3,
        "weight": 224,
        "weightUnit": "lb",
        "pieces": 593
      },
      {
        "id": 4,
        "weight": 183,
        "weightUnit": "lb",
        "pieces": 167
      },
      {
        "id": 5,
        "weight": 141,
        "weightUnit": "kg",
        "pieces": 418
      },
      {
        "id": 6,
        "weight": 307,
        "weightUnit": "lb",
        "pieces": 720
      },
      {
        "id": 7,
        "weight": 557,
        "weightUnit": "kg",
        "pieces": 82
      }
    ],
    "cargo": [
      {
        "id": 0,
        "weight": 468,
        "weightUnit": "kg",
        "pieces": 299
      },
      {
        "id": 1,
        "weight": 431,
        "weightUnit": "kg",
        "pieces": 326
      },
      {
        "id": 2,
        "weight": 29,
        "weightUnit": "lb",
        "pieces": 764
      },
      {
        "id": 3,
        "weight": 416,
        "weightUnit": "kg",
        "pieces": 266
      }
    ]
  },
  {
    "flightId": 3,
    "baggage": [
      {
        "id": 0,
        "weight": 382,
        "weightUnit": "lb",
        "pieces": 577
      },
      {
        "id": 1,
        "weight": 817,
        "weightUnit": "kg",
        "pieces": 885
      },
      {
        "id": 2,
        "weight": 778,
        "weightUnit": "kg",
        "pieces": 190
      },
      {
        "id": 3,
        "weight": 444,
        "weightUnit": "lb",
        "pieces": 62
      },
      {
        "id": 4,
        "weight": 141,
        "weightUnit": "kg",
        "pieces": 520
      },
      {
        "id": 5,
        "weight": 180,
        "weightUnit": "lb",
        "pieces": 917
      }
    ],
    "cargo": [
      {
        "id": 0,
        "weight": 916,
        "weightUnit": "kg",
        "pieces": 514
      },
      {
        "id": 1,
        "weight": 634,
        "weightUnit": "lb",
        "pieces": 237
      },
      {
        "id": 2,
        "weight": 995,
        "weightUnit": "kg",
        "pieces": 624
      },
      {
        "id": 3,
        "weight": 184,
        "weightUnit": "kg",
        "pieces": 19
      }
    ]
  },
  {
    "flightId": 4,
    "baggage": [
      {
        "id": 0,
        "weight": 681,
        "weightUnit": "kg",
        "pieces": 271
      },
      {
        "id": 1,
        "weight": 403,
        "weightUnit": "lb",
        "pieces": 929
      },
      {
        "id": 2,
        "weight": 539,
        "weightUnit": "lb",
        "pieces": 462
      },
      {
        "id": 3,
        "weight": 349,
        "weightUnit": "kg",
        "pieces": 285
      },
      {
        "id": 4,
        "weight": 847,
        "weightUnit": "lb",
        "pieces": 119
      },
      {
        "id": 5,
        "weight": 292,
        "weightUnit": "kg",
        "pieces": 733
      },
      {
        "id": 6,
        "weight": 244,
        "weightUnit": "lb",
        "pieces": 137
      },
      {
        "id": 7,
        "weight": 491,
        "weightUnit": "kg",
        "pieces": 106
      }
    ],
    "cargo": [
      {
        "id": 0,
        "weight": 495,
        "weightUnit": "kg",
        "pieces": 949
      },
      {
        "id": 1,
        "weight": 818,
        "weightUnit": "kg",
        "pieces": 78
      },
      {
        "id": 2,
        "weight": 686,
        "weightUnit": "kg",
        "pieces": 157
      }
    ]
  },
  {
    "flightId": 5,
    "baggage": [
      {
        "id": 0,
        "weight": 880,
        "weightUnit": "kg",
        "pieces": 998
      },
      {
        "id": 1,
        "weight": 157,
        "weightUnit": "kg",
        "pieces": 262
      },
      {
        "id": 2,
        "weight": 101,
        "weightUnit": "kg",
        "pieces": 193
      },
      {
        "id": 3,
        "weight": 79,
        "weightUnit": "kg",
        "pieces": 658
      }
    ],
    "cargo": [
      {
        "id": 0,
        "weight": 5,
        "weightUnit": "kg",
        "pieces": 713
      },
      {
        "id": 1,
        "weight": 212,
        "weightUnit": "lb",
        "pieces": 13
      },
      {
        "id": 2,
        "weight": 440,
        "weightUnit": "lb",
        "pieces": 769
      }
    ]
  }
]